\acswitchoff 
\boolfalse {citerequest}\boolfalse {citetracker}\boolfalse {pagetracker}\boolfalse {backtracker}\relax 
\babel@toc {english}{}
\contentsline {chapter}{Dictionary of terms}{v}{chapter*.3}%
\contentsline {chapter}{\numberline {1}Introduction}{1}{chapter.1}%
\contentsline {chapter}{\numberline {2}Deep reinforcement learning}{3}{chapter.2}%
\contentsline {section}{\numberline {2.1}DRL in the context of AI}{4}{section.2.1}%
\contentsline {chapter}{Zoznam použitej literatúry}{5}{chapter*.8}%
\contentsline {part}{Appendices}{7}{section*.9}%
\contentsline {chapter}{\numberline {A}Zeleninový šalát}{I}{appendix.A}%
\contentsline {section}{\numberline {A.1}Textová vata}{I}{section.A.1}%
